127.0.0.1 - - [20/Jun/2020:14:01:01 +0530] "GET / HTTP/1.1" 404 994
192.168.0.106 - - [20/Jun/2020:14:05:05 +0530] "-" 400 -
192.168.0.106 - - [20/Jun/2020:14:13:19 +0530] "-" 400 -
192.168.0.106 - - [20/Jun/2020:14:19:54 +0530] "-" 400 -
127.0.0.1 - - [20/Jun/2020:14:25:03 +0530] "GET / HTTP/1.1" 404 994
192.168.0.106 - - [20/Jun/2020:14:25:13 +0530] "-" 400 -
192.168.0.106 - - [20/Jun/2020:14:25:35 +0530] "-" 400 -
0:0:0:0:0:0:0:1 - - [20/Jun/2020:14:27:24 +0530] "GET /PlantLeafDiseaseDetectionWeb/ HTTP/1.1" 404 1052
0:0:0:0:0:0:0:1 - - [20/Jun/2020:14:27:39 +0530] "GET /PlantLeafDiseaseDetectionWeb/pages/index.jsp HTTP/1.1" 200 4531
0:0:0:0:0:0:0:1 - - [20/Jun/2020:14:27:39 +0530] "GET /PlantLeafDiseaseDetectionWeb/theme/color/default.css HTTP/1.1" 200 655
0:0:0:0:0:0:0:1 - - [20/Jun/2020:14:27:39 +0530] "GET /PlantLeafDiseaseDetectionWeb/theme/js/jquery.min.js HTTP/1.1" 200 93100
0:0:0:0:0:0:0:1 - - [20/Jun/2020:14:27:39 +0530] "GET /PlantLeafDiseaseDetectionWeb/theme/css/looks.css HTTP/1.1" 200 3283
0:0:0:0:0:0:0:1 - - [20/Jun/2020:14:27:39 +0530] "GET /PlantLeafDiseaseDetectionWeb/theme/font-awesome/css/font-awesome.min.css HTTP/1.1" 200 17780
0:0:0:0:0:0:0:1 - - [20/Jun/2020:14:27:39 +0530] "GET /PlantLeafDiseaseDetectionWeb/theme/css/animate.css HTTP/1.1" 200 57095
0:0:0:0:0:0:0:1 - - [20/Jun/2020:14:27:39 +0530] "GET /PlantLeafDiseaseDetectionWeb/theme/css/bootstrap.min.css HTTP/1.1" 200 101595
0:0:0:0:0:0:0:1 - - [20/Jun/2020:14:27:39 +0530] "GET /PlantLeafDiseaseDetectionWeb/theme/css/style.css HTTP/1.1" 200 15037
0:0:0:0:0:0:0:1 - - [20/Jun/2020:14:27:39 +0530] "GET /PlantLeafDiseaseDetectionWeb/theme/js/bootstrap.min.js HTTP/1.1" 200 29097
0:0:0:0:0:0:0:1 - - [20/Jun/2020:14:27:39 +0530] "GET /PlantLeafDiseaseDetectionWeb/theme/js/jquery.scrollTo.js HTTP/1.1" 200 2433
0:0:0:0:0:0:0:1 - - [20/Jun/2020:14:27:39 +0530] "GET /PlantLeafDiseaseDetectionWeb/theme/js/jquery.easing.min.js HTTP/1.1" 200 5555
0:0:0:0:0:0:0:1 - - [20/Jun/2020:14:27:39 +0530] "GET /PlantLeafDiseaseDetectionWeb/theme/js/jquery.highlight-4.js HTTP/1.1" 200 1365
0:0:0:0:0:0:0:1 - - [20/Jun/2020:14:27:39 +0530] "GET /PlantLeafDiseaseDetectionWeb/theme/js/wow.min.js HTTP/1.1" 200 3419
0:0:0:0:0:0:0:1 - - [20/Jun/2020:14:27:39 +0530] "GET /PlantLeafDiseaseDetectionWeb/theme/js/custom.js HTTP/1.1" 200 1164
0:0:0:0:0:0:0:1 - - [20/Jun/2020:14:27:39 +0530] "GET /PlantLeafDiseaseDetectionWeb/theme/css/fonts.css HTTP/1.1" 200 2414
0:0:0:0:0:0:0:1 - - [20/Jun/2020:14:27:39 +0530] "GET /PlantLeafDiseaseDetectionWeb/theme/img/bg1.jpg HTTP/1.1" 200 1311324
0:0:0:0:0:0:0:1 - - [20/Jun/2020:14:27:39 +0530] "GET /PlantLeafDiseaseDetectionWeb/theme/css/IQHow_FEYlDC4Gzy_m8fcgFhaRv2pGgT5Kf0An0s4MM.woff HTTP/1.1" 200 13292
127.0.0.1 - - [20/Jun/2020:14:40:24 +0530] "GET / HTTP/1.1" 404 994
127.0.0.1 - - [20/Jun/2020:14:45:54 +0530] "GET / HTTP/1.1" 404 994
0:0:0:0:0:0:0:1 - - [20/Jun/2020:14:45:55 +0530] "GET /PlantLeafDiseaseDetectionWeb/pages/index.jsp HTTP/1.1" 200 4531
0:0:0:0:0:0:0:1 - - [20/Jun/2020:14:45:55 +0530] "GET /PlantLeafDiseaseDetectionWeb/theme/color/default.css HTTP/1.1" 200 655
0:0:0:0:0:0:0:1 - - [20/Jun/2020:14:45:55 +0530] "GET /PlantLeafDiseaseDetectionWeb/theme/css/bootstrap.min.css HTTP/1.1" 200 101595
0:0:0:0:0:0:0:1 - - [20/Jun/2020:14:45:55 +0530] "GET /PlantLeafDiseaseDetectionWeb/theme/css/looks.css HTTP/1.1" 200 3283
0:0:0:0:0:0:0:1 - - [20/Jun/2020:14:45:55 +0530] "GET /PlantLeafDiseaseDetectionWeb/theme/css/style.css HTTP/1.1" 200 15037
0:0:0:0:0:0:0:1 - - [20/Jun/2020:14:45:55 +0530] "GET /PlantLeafDiseaseDetectionWeb/theme/css/animate.css HTTP/1.1" 200 57095
0:0:0:0:0:0:0:1 - - [20/Jun/2020:14:45:55 +0530] "GET /PlantLeafDiseaseDetectionWeb/theme/font-awesome/css/font-awesome.min.css HTTP/1.1" 200 17780
0:0:0:0:0:0:0:1 - - [20/Jun/2020:14:45:55 +0530] "GET /PlantLeafDiseaseDetectionWeb/theme/js/jquery.scrollTo.js HTTP/1.1" 200 2433
0:0:0:0:0:0:0:1 - - [20/Jun/2020:14:45:55 +0530] "GET /PlantLeafDiseaseDetectionWeb/theme/js/jquery.highlight-4.js HTTP/1.1" 200 1365
0:0:0:0:0:0:0:1 - - [20/Jun/2020:14:45:55 +0530] "GET /PlantLeafDiseaseDetectionWeb/theme/js/jquery.min.js HTTP/1.1" 200 93100
0:0:0:0:0:0:0:1 - - [20/Jun/2020:14:45:55 +0530] "GET /PlantLeafDiseaseDetectionWeb/theme/js/bootstrap.min.js HTTP/1.1" 200 29097
0:0:0:0:0:0:0:1 - - [20/Jun/2020:14:45:55 +0530] "GET /PlantLeafDiseaseDetectionWeb/theme/js/wow.min.js HTTP/1.1" 200 3419
0:0:0:0:0:0:0:1 - - [20/Jun/2020:14:45:55 +0530] "GET /PlantLeafDiseaseDetectionWeb/theme/js/jquery.easing.min.js HTTP/1.1" 200 5555
0:0:0:0:0:0:0:1 - - [20/Jun/2020:14:45:55 +0530] "GET /PlantLeafDiseaseDetectionWeb/theme/js/custom.js HTTP/1.1" 200 1164
0:0:0:0:0:0:0:1 - - [20/Jun/2020:14:45:55 +0530] "GET /PlantLeafDiseaseDetectionWeb/theme/css/fonts.css HTTP/1.1" 200 2414
0:0:0:0:0:0:0:1 - - [20/Jun/2020:14:45:55 +0530] "GET /PlantLeafDiseaseDetectionWeb/theme/css/IQHow_FEYlDC4Gzy_m8fcgFhaRv2pGgT5Kf0An0s4MM.woff HTTP/1.1" 200 13292
0:0:0:0:0:0:0:1 - - [20/Jun/2020:14:45:55 +0530] "GET /PlantLeafDiseaseDetectionWeb/theme/img/bg1.jpg HTTP/1.1" 200 1311324
127.0.0.1 - - [20/Jun/2020:15:13:00 +0530] "GET / HTTP/1.1" 404 994
0:0:0:0:0:0:0:1 - - [20/Jun/2020:15:13:01 +0530] "GET /PlantLeafDiseaseDetectionWeb/pages/index.jsp HTTP/1.1" 200 4531
0:0:0:0:0:0:0:1 - - [20/Jun/2020:15:13:01 +0530] "GET /PlantLeafDiseaseDetectionWeb/theme/css/animate.css HTTP/1.1" 200 57095
0:0:0:0:0:0:0:1 - - [20/Jun/2020:15:13:01 +0530] "GET /PlantLeafDiseaseDetectionWeb/theme/css/bootstrap.min.css HTTP/1.1" 200 101595
0:0:0:0:0:0:0:1 - - [20/Jun/2020:15:13:01 +0530] "GET /PlantLeafDiseaseDetectionWeb/theme/color/default.css HTTP/1.1" 200 655
0:0:0:0:0:0:0:1 - - [20/Jun/2020:15:13:01 +0530] "GET /PlantLeafDiseaseDetectionWeb/theme/css/looks.css HTTP/1.1" 200 3283
0:0:0:0:0:0:0:1 - - [20/Jun/2020:15:13:01 +0530] "GET /PlantLeafDiseaseDetectionWeb/theme/js/jquery.min.js HTTP/1.1" 200 93100
0:0:0:0:0:0:0:1 - - [20/Jun/2020:15:13:01 +0530] "GET /PlantLeafDiseaseDetectionWeb/theme/font-awesome/css/font-awesome.min.css HTTP/1.1" 200 17780
0:0:0:0:0:0:0:1 - - [20/Jun/2020:15:13:01 +0530] "GET /PlantLeafDiseaseDetectionWeb/theme/css/style.css HTTP/1.1" 200 15037
0:0:0:0:0:0:0:1 - - [20/Jun/2020:15:13:01 +0530] "GET /PlantLeafDiseaseDetectionWeb/theme/js/jquery.scrollTo.js HTTP/1.1" 200 2433
0:0:0:0:0:0:0:1 - - [20/Jun/2020:15:13:01 +0530] "GET /PlantLeafDiseaseDetectionWeb/theme/js/jquery.highlight-4.js HTTP/1.1" 200 1365
0:0:0:0:0:0:0:1 - - [20/Jun/2020:15:13:01 +0530] "GET /PlantLeafDiseaseDetectionWeb/theme/js/custom.js HTTP/1.1" 200 1164
0:0:0:0:0:0:0:1 - - [20/Jun/2020:15:13:01 +0530] "GET /PlantLeafDiseaseDetectionWeb/theme/js/wow.min.js HTTP/1.1" 200 3419
0:0:0:0:0:0:0:1 - - [20/Jun/2020:15:13:01 +0530] "GET /PlantLeafDiseaseDetectionWeb/theme/js/jquery.easing.min.js HTTP/1.1" 200 5555
0:0:0:0:0:0:0:1 - - [20/Jun/2020:15:13:01 +0530] "GET /PlantLeafDiseaseDetectionWeb/theme/js/bootstrap.min.js HTTP/1.1" 200 29097
0:0:0:0:0:0:0:1 - - [20/Jun/2020:15:13:01 +0530] "GET /PlantLeafDiseaseDetectionWeb/theme/css/fonts.css HTTP/1.1" 200 2414
0:0:0:0:0:0:0:1 - - [20/Jun/2020:15:13:02 +0530] "GET /PlantLeafDiseaseDetectionWeb/theme/img/bg1.jpg HTTP/1.1" 200 1311324
0:0:0:0:0:0:0:1 - - [20/Jun/2020:15:13:02 +0530] "GET /PlantLeafDiseaseDetectionWeb/theme/css/IQHow_FEYlDC4Gzy_m8fcgFhaRv2pGgT5Kf0An0s4MM.woff HTTP/1.1" 200 13292
192.168.0.106 - - [20/Jun/2020:15:14:27 +0530] "-" 400 -
192.168.0.100 - - [20/Jun/2020:15:15:27 +0530] "POST /PlantLeafDiseaseDetectionWeb/tiles/ajax.jsp?phone=1&methodId=uploadImage2 HTTP/1.1" 200 4602
192.168.0.100 - - [20/Jun/2020:15:15:27 +0530] "GET /PlantLeafDiseaseDetectionWeb/tiles/ajax.jsp?phone=1&methodId=getDecision HTTP/1.1" 200 2
192.168.0.100 - - [20/Jun/2020:15:15:30 +0530] "POST /PlantLeafDiseaseDetectionWeb/tiles/ajax.jsp?phone=1&methodId=uploadImage2 HTTP/1.1" 200 4602
192.168.0.100 - - [20/Jun/2020:15:15:30 +0530] "GET /PlantLeafDiseaseDetectionWeb/tiles/ajax.jsp?phone=1&methodId=getDecision HTTP/1.1" 200 2
192.168.0.100 - - [20/Jun/2020:15:15:41 +0530] "POST /PlantLeafDiseaseDetectionWeb/tiles/ajax.jsp?phone=1&methodId=uploadImage2 HTTP/1.1" 200 4602
192.168.0.100 - - [20/Jun/2020:15:15:41 +0530] "GET /PlantLeafDiseaseDetectionWeb/tiles/ajax.jsp?phone=1&methodId=getDecision HTTP/1.1" 200 2
192.168.0.100 - - [20/Jun/2020:15:15:41 +0530] "POST /PlantLeafDiseaseDetectionWeb/tiles/ajax.jsp?phone=1&methodId=uploadImage2 HTTP/1.1" 200 4602
192.168.0.100 - - [20/Jun/2020:15:15:41 +0530] "GET /PlantLeafDiseaseDetectionWeb/tiles/ajax.jsp?phone=1&methodId=getDecision HTTP/1.1" 200 2
192.168.0.100 - - [20/Jun/2020:15:15:42 +0530] "POST /PlantLeafDiseaseDetectionWeb/tiles/ajax.jsp?phone=1&methodId=uploadImage2 HTTP/1.1" 200 4602
192.168.0.100 - - [20/Jun/2020:15:15:42 +0530] "GET /PlantLeafDiseaseDetectionWeb/tiles/ajax.jsp?phone=1&methodId=getDecision HTTP/1.1" 200 2
192.168.0.100 - - [20/Jun/2020:15:15:54 +0530] "POST /PlantLeafDiseaseDetectionWeb/tiles/ajax.jsp?phone=1&methodId=uploadImage2 HTTP/1.1" 200 4602
192.168.0.100 - - [20/Jun/2020:15:15:55 +0530] "GET /PlantLeafDiseaseDetectionWeb/tiles/ajax.jsp?phone=1&methodId=getDecision HTTP/1.1" 200 2
192.168.0.106 - - [20/Jun/2020:15:17:22 +0530] "-" 400 -
192.168.0.100 - - [20/Jun/2020:15:19:52 +0530] "POST /PlantLeafDiseaseDetectionWeb/tiles/ajax.jsp?phone=1&methodId=uploadImage2 HTTP/1.1" 200 4602
192.168.0.100 - - [20/Jun/2020:15:19:52 +0530] "GET /PlantLeafDiseaseDetectionWeb/tiles/ajax.jsp?phone=1&methodId=getDecision HTTP/1.1" 200 2
192.168.0.100 - - [20/Jun/2020:15:23:41 +0530] "POST /PlantLeafDiseaseDetectionWeb/tiles/ajax.jsp?phone=1&methodId=uploadImage2 HTTP/1.1" 200 5745
192.168.0.100 - - [20/Jun/2020:15:23:41 +0530] "GET /PlantLeafDiseaseDetectionWeb/tiles/ajax.jsp?phone=1&methodId=getDecision HTTP/1.1" 200 2
127.0.0.1 - - [20/Jun/2020:15:30:32 +0530] "GET / HTTP/1.1" 404 994
0:0:0:0:0:0:0:1 - - [20/Jun/2020:15:30:32 +0530] "GET /PlantLeafDiseaseDetectionWeb/pages/index.jsp HTTP/1.1" 200 4531
0:0:0:0:0:0:0:1 - - [20/Jun/2020:15:30:32 +0530] "GET /PlantLeafDiseaseDetectionWeb/theme/css/bootstrap.min.css HTTP/1.1" 200 101595
0:0:0:0:0:0:0:1 - - [20/Jun/2020:15:30:32 +0530] "GET /PlantLeafDiseaseDetectionWeb/theme/css/animate.css HTTP/1.1" 200 57095
0:0:0:0:0:0:0:1 - - [20/Jun/2020:15:30:32 +0530] "GET /PlantLeafDiseaseDetectionWeb/theme/color/default.css HTTP/1.1" 200 655
0:0:0:0:0:0:0:1 - - [20/Jun/2020:15:30:32 +0530] "GET /PlantLeafDiseaseDetectionWeb/theme/font-awesome/css/font-awesome.min.css HTTP/1.1" 200 17780
0:0:0:0:0:0:0:1 - - [20/Jun/2020:15:30:32 +0530] "GET /PlantLeafDiseaseDetectionWeb/theme/css/looks.css HTTP/1.1" 200 3283
0:0:0:0:0:0:0:1 - - [20/Jun/2020:15:30:32 +0530] "GET /PlantLeafDiseaseDetectionWeb/theme/css/style.css HTTP/1.1" 200 15037
0:0:0:0:0:0:0:1 - - [20/Jun/2020:15:30:32 +0530] "GET /PlantLeafDiseaseDetectionWeb/theme/js/jquery.min.js HTTP/1.1" 200 93100
0:0:0:0:0:0:0:1 - - [20/Jun/2020:15:30:32 +0530] "GET /PlantLeafDiseaseDetectionWeb/theme/js/jquery.scrollTo.js HTTP/1.1" 200 2433
0:0:0:0:0:0:0:1 - - [20/Jun/2020:15:30:32 +0530] "GET /PlantLeafDiseaseDetectionWeb/theme/js/jquery.highlight-4.js HTTP/1.1" 200 1365
0:0:0:0:0:0:0:1 - - [20/Jun/2020:15:30:32 +0530] "GET /PlantLeafDiseaseDetectionWeb/theme/js/custom.js HTTP/1.1" 200 1164
0:0:0:0:0:0:0:1 - - [20/Jun/2020:15:30:32 +0530] "GET /PlantLeafDiseaseDetectionWeb/theme/css/fonts.css HTTP/1.1" 200 2414
0:0:0:0:0:0:0:1 - - [20/Jun/2020:15:30:33 +0530] "GET /PlantLeafDiseaseDetectionWeb/theme/js/bootstrap.min.js HTTP/1.1" 200 29097
0:0:0:0:0:0:0:1 - - [20/Jun/2020:15:30:33 +0530] "GET /PlantLeafDiseaseDetectionWeb/theme/js/wow.min.js HTTP/1.1" 200 3419
0:0:0:0:0:0:0:1 - - [20/Jun/2020:15:30:33 +0530] "GET /PlantLeafDiseaseDetectionWeb/theme/js/jquery.easing.min.js HTTP/1.1" 200 5555
0:0:0:0:0:0:0:1 - - [20/Jun/2020:15:30:33 +0530] "GET /PlantLeafDiseaseDetectionWeb/theme/img/bg1.jpg HTTP/1.1" 200 1311324
0:0:0:0:0:0:0:1 - - [20/Jun/2020:15:30:33 +0530] "GET /PlantLeafDiseaseDetectionWeb/theme/css/IQHow_FEYlDC4Gzy_m8fcgFhaRv2pGgT5Kf0An0s4MM.woff HTTP/1.1" 200 13292
0:0:0:0:0:0:0:1 - - [20/Jun/2020:15:30:47 +0530] "POST /PlantLeafDiseaseDetectionWeb/tiles/ajax.jsp?methodId=checkLogin HTTP/1.1" 200 6
0:0:0:0:0:0:0:1 - - [20/Jun/2020:15:30:47 +0530] "GET /PlantLeafDiseaseDetectionWeb/pages/home.jsp HTTP/1.1" 200 4267
0:0:0:0:0:0:0:1 - - [20/Jun/2020:15:30:47 +0530] "GET /PlantLeafDiseaseDetectionWeb/theme/font-awesome/fonts/fontawesome-webfont.eot? HTTP/1.1" 200 38205
0:0:0:0:0:0:0:1 - - [20/Jun/2020:15:30:50 +0530] "GET /PlantLeafDiseaseDetectionWeb/pages/checkDisease.jsp HTTP/1.1" 200 4523
0:0:0:0:0:0:0:1 - - [20/Jun/2020:15:31:09 +0530] "POST /PlantLeafDiseaseDetectionWeb/tiles/ajax.jsp?methodId=uploadImage2 HTTP/1.1" 200 5194
0:0:0:0:0:0:0:1 - - [20/Jun/2020:15:31:09 +0530] "GET /PlantLeafDiseaseDetectionWeb/tiles/ajax.jsp?methodId=getImage&filename=testingFile.jpg HTTP/1.1" 200 16529
0:0:0:0:0:0:0:1 - - [20/Jun/2020:15:31:20 +0530] "POST /PlantLeafDiseaseDetectionWeb/tiles/ajax.jsp?methodId=uploadImage2 HTTP/1.1" 200 5209
0:0:0:0:0:0:0:1 - - [20/Jun/2020:15:31:20 +0530] "GET /PlantLeafDiseaseDetectionWeb/tiles/ajax.jsp?methodId=getImage&filename=testingFile.jpg HTTP/1.1" 200 20975
0:0:0:0:0:0:0:1 - - [20/Jun/2020:15:31:37 +0530] "POST /PlantLeafDiseaseDetectionWeb/tiles/ajax.jsp?methodId=uploadImage2 HTTP/1.1" 200 6095
0:0:0:0:0:0:0:1 - - [20/Jun/2020:15:31:37 +0530] "GET /PlantLeafDiseaseDetectionWeb/tiles/ajax.jsp?methodId=getImage&filename=testingFile.jpg HTTP/1.1" 200 17492
