127.0.0.1 - - [01/Jul/2020:08:15:54 +0530] "GET / HTTP/1.1" 404 994
0:0:0:0:0:0:0:1 - - [01/Jul/2020:08:15:56 +0530] "GET /PlantPathology/pages/index.jsp HTTP/1.1" 200 4290
0:0:0:0:0:0:0:1 - - [01/Jul/2020:08:15:56 +0530] "GET /PlantPathology/theme/color/default.css HTTP/1.1" 200 655
0:0:0:0:0:0:0:1 - - [01/Jul/2020:08:15:56 +0530] "GET /PlantPathology/theme/css/bootstrap.min.css HTTP/1.1" 200 101595
0:0:0:0:0:0:0:1 - - [01/Jul/2020:08:15:56 +0530] "GET /PlantPathology/theme/css/animate.css HTTP/1.1" 200 57095
0:0:0:0:0:0:0:1 - - [01/Jul/2020:08:15:56 +0530] "GET /PlantPathology/theme/js/jquery.min.js HTTP/1.1" 200 93100
0:0:0:0:0:0:0:1 - - [01/Jul/2020:08:15:56 +0530] "GET /PlantPathology/theme/font-awesome/css/font-awesome.min.css HTTP/1.1" 200 17780
0:0:0:0:0:0:0:1 - - [01/Jul/2020:08:15:56 +0530] "GET /PlantPathology/theme/css/style.css HTTP/1.1" 200 15037
0:0:0:0:0:0:0:1 - - [01/Jul/2020:08:15:56 +0530] "GET /PlantPathology/theme/css/looks.css HTTP/1.1" 200 3283
0:0:0:0:0:0:0:1 - - [01/Jul/2020:08:15:56 +0530] "GET /PlantPathology/theme/js/jquery.scrollTo.js HTTP/1.1" 200 2433
0:0:0:0:0:0:0:1 - - [01/Jul/2020:08:15:56 +0530] "GET /PlantPathology/theme/js/custom.js HTTP/1.1" 200 1164
0:0:0:0:0:0:0:1 - - [01/Jul/2020:08:15:56 +0530] "GET /PlantPathology/theme/js/jquery.highlight-4.js HTTP/1.1" 200 1365
0:0:0:0:0:0:0:1 - - [01/Jul/2020:08:15:56 +0530] "GET /PlantPathology/theme/js/jquery.easing.min.js HTTP/1.1" 200 5555
0:0:0:0:0:0:0:1 - - [01/Jul/2020:08:15:56 +0530] "GET /PlantPathology/theme/js/bootstrap.min.js HTTP/1.1" 200 29097
0:0:0:0:0:0:0:1 - - [01/Jul/2020:08:15:56 +0530] "GET /PlantPathology/theme/js/wow.min.js HTTP/1.1" 200 3419
0:0:0:0:0:0:0:1 - - [01/Jul/2020:08:15:57 +0530] "GET /PlantPathology/theme/css/fonts.css HTTP/1.1" 200 2414
0:0:0:0:0:0:0:1 - - [01/Jul/2020:08:15:57 +0530] "GET /PlantPathology/theme/img/bg1.jpg HTTP/1.1" 200 1311324
0:0:0:0:0:0:0:1 - - [01/Jul/2020:08:15:57 +0530] "GET /PlantPathology/theme/css/IQHow_FEYlDC4Gzy_m8fcgFhaRv2pGgT5Kf0An0s4MM.woff HTTP/1.1" 200 13292
0:0:0:0:0:0:0:1 - - [01/Jul/2020:08:16:08 +0530] "POST /PlantPathology/tiles/ajax.jsp?methodId=checkLogin HTTP/1.1" 200 6
0:0:0:0:0:0:0:1 - - [01/Jul/2020:08:16:08 +0530] "GET /PlantPathology/pages/home.jsp HTTP/1.1" 200 4012
0:0:0:0:0:0:0:1 - - [01/Jul/2020:08:16:08 +0530] "GET /PlantPathology/theme/font-awesome/fonts/fontawesome-webfont.eot? HTTP/1.1" 200 38205
0:0:0:0:0:0:0:1 - - [01/Jul/2020:08:16:11 +0530] "GET /PlantPathology/pages/checkDisease.jsp HTTP/1.1" 200 4282
0:0:0:0:0:0:0:1 - - [01/Jul/2020:08:16:31 +0530] "GET /PlantPathology/tiles/ajax.jsp?methodId=logout HTTP/1.1" 200 81
0:0:0:0:0:0:0:1 - - [01/Jul/2020:08:16:31 +0530] "GET /PlantPathology/pages/index.jsp HTTP/1.1" 200 4290
0:0:0:0:0:0:0:1 - - [01/Jul/2020:08:16:35 +0530] "GET /PlantPathology/pages/user_registration.jsp HTTP/1.1" 200 6239
0:0:0:0:0:0:0:1 - - [01/Jul/2020:08:17:06 +0530] "POST /PlantPathology/tiles/ajax.jsp?methodId=registerNewUser HTTP/1.1" 200 31
0:0:0:0:0:0:0:1 - - [01/Jul/2020:08:17:16 +0530] "POST /PlantPathology/tiles/ajax.jsp?methodId=registerNewUser HTTP/1.1" 200 31
0:0:0:0:0:0:0:1 - - [01/Jul/2020:08:18:17 +0530] "POST /PlantPathology/tiles/ajax.jsp?methodId=registerNewUser HTTP/1.1" 200 31
0:0:0:0:0:0:0:1 - - [01/Jul/2020:08:18:35 +0530] "POST /PlantPathology/tiles/ajax.jsp?methodId=registerNewUser HTTP/1.1" 200 31
0:0:0:0:0:0:0:1 - - [01/Jul/2020:08:19:59 +0530] "POST /PlantPathology/tiles/ajax.jsp?methodId=registerNewUser HTTP/1.1" 200 31
0:0:0:0:0:0:0:1 - - [01/Jul/2020:08:20:09 +0530] "POST /PlantPathology/tiles/ajax.jsp?methodId=registerNewUser HTTP/1.1" 200 31
0:0:0:0:0:0:0:1 - - [01/Jul/2020:08:20:45 +0530] "POST /PlantPathology/tiles/ajax.jsp?methodId=registerNewUser HTTP/1.1" 200 31
0:0:0:0:0:0:0:1 - - [01/Jul/2020:08:20:51 +0530] "GET /PlantPathology/pages/index.jsp HTTP/1.1" 200 4290
127.0.0.1 - - [01/Jul/2020:14:13:22 +0530] "GET / HTTP/1.1" 404 994
0:0:0:0:0:0:0:1 - - [01/Jul/2020:14:13:23 +0530] "GET /PlantPathology/pages/index.jsp HTTP/1.1" 200 4290
0:0:0:0:0:0:0:1 - - [01/Jul/2020:14:13:23 +0530] "GET /PlantPathology/theme/css/animate.css HTTP/1.1" 200 57095
0:0:0:0:0:0:0:1 - - [01/Jul/2020:14:13:23 +0530] "GET /PlantPathology/theme/css/bootstrap.min.css HTTP/1.1" 200 101595
0:0:0:0:0:0:0:1 - - [01/Jul/2020:14:13:24 +0530] "GET /PlantPathology/theme/color/default.css HTTP/1.1" 200 655
0:0:0:0:0:0:0:1 - - [01/Jul/2020:14:13:24 +0530] "GET /PlantPathology/theme/css/looks.css HTTP/1.1" 200 3283
0:0:0:0:0:0:0:1 - - [01/Jul/2020:14:13:24 +0530] "GET /PlantPathology/theme/font-awesome/css/font-awesome.min.css HTTP/1.1" 200 17780
0:0:0:0:0:0:0:1 - - [01/Jul/2020:14:13:24 +0530] "GET /PlantPathology/theme/js/jquery.min.js HTTP/1.1" 200 93100
0:0:0:0:0:0:0:1 - - [01/Jul/2020:14:13:24 +0530] "GET /PlantPathology/theme/css/style.css HTTP/1.1" 200 15037
0:0:0:0:0:0:0:1 - - [01/Jul/2020:14:13:24 +0530] "GET /PlantPathology/theme/js/jquery.scrollTo.js HTTP/1.1" 200 2433
0:0:0:0:0:0:0:1 - - [01/Jul/2020:14:13:24 +0530] "GET /PlantPathology/theme/js/jquery.easing.min.js HTTP/1.1" 200 5555
0:0:0:0:0:0:0:1 - - [01/Jul/2020:14:13:24 +0530] "GET /PlantPathology/theme/js/jquery.highlight-4.js HTTP/1.1" 200 1365
0:0:0:0:0:0:0:1 - - [01/Jul/2020:14:13:24 +0530] "GET /PlantPathology/theme/js/custom.js HTTP/1.1" 200 1164
0:0:0:0:0:0:0:1 - - [01/Jul/2020:14:13:24 +0530] "GET /PlantPathology/theme/js/wow.min.js HTTP/1.1" 200 3419
0:0:0:0:0:0:0:1 - - [01/Jul/2020:14:13:24 +0530] "GET /PlantPathology/theme/js/bootstrap.min.js HTTP/1.1" 200 29097
0:0:0:0:0:0:0:1 - - [01/Jul/2020:14:13:24 +0530] "GET /PlantPathology/theme/css/fonts.css HTTP/1.1" 200 2414
0:0:0:0:0:0:0:1 - - [01/Jul/2020:14:13:24 +0530] "GET /PlantPathology/theme/img/bg1.jpg HTTP/1.1" 200 1311324
0:0:0:0:0:0:0:1 - - [01/Jul/2020:14:13:24 +0530] "GET /PlantPathology/theme/css/IQHow_FEYlDC4Gzy_m8fcgFhaRv2pGgT5Kf0An0s4MM.woff HTTP/1.1" 200 13292
0:0:0:0:0:0:0:1 - - [01/Jul/2020:14:14:02 +0530] "POST /PlantPathology/tiles/ajax.jsp?methodId=checkLogin HTTP/1.1" 200 6
0:0:0:0:0:0:0:1 - - [01/Jul/2020:14:14:02 +0530] "GET /PlantPathology/pages/home.jsp HTTP/1.1" 200 4012
0:0:0:0:0:0:0:1 - - [01/Jul/2020:14:14:03 +0530] "GET /PlantPathology/theme/font-awesome/fonts/fontawesome-webfont.eot? HTTP/1.1" 200 38205
0:0:0:0:0:0:0:1 - - [01/Jul/2020:14:14:06 +0530] "GET /PlantPathology/pages/checkDisease.jsp HTTP/1.1" 200 4282
0:0:0:0:0:0:0:1 - - [01/Jul/2020:14:15:02 +0530] "POST /PlantPathology/tiles/ajax.jsp?methodId=uploadImage2 HTTP/1.1" 200 5831
0:0:0:0:0:0:0:1 - - [01/Jul/2020:14:15:02 +0530] "GET /PlantPathology/tiles/ajax.jsp?methodId=getImage&filename=testingFile.jpg HTTP/1.1" 200 14379
0:0:0:0:0:0:0:1 - - [01/Jul/2020:14:15:59 +0530] "POST /PlantPathology/tiles/ajax.jsp?methodId=uploadImage2 HTTP/1.1" 200 4943
0:0:0:0:0:0:0:1 - - [01/Jul/2020:14:15:59 +0530] "GET /PlantPathology/tiles/ajax.jsp?methodId=getImage&filename=testingFile.jpg HTTP/1.1" 200 23804
0:0:0:0:0:0:0:1 - - [01/Jul/2020:14:16:23 +0530] "POST /PlantPathology/tiles/ajax.jsp?methodId=uploadImage2 HTTP/1.1" 200 5838
0:0:0:0:0:0:0:1 - - [01/Jul/2020:14:16:23 +0530] "GET /PlantPathology/tiles/ajax.jsp?methodId=getImage&filename=testingFile.jpg HTTP/1.1" 200 11793
0:0:0:0:0:0:0:1 - - [01/Jul/2020:14:16:53 +0530] "POST /PlantPathology/tiles/ajax.jsp?methodId=uploadImage2 HTTP/1.1" 200 4956
0:0:0:0:0:0:0:1 - - [01/Jul/2020:14:16:53 +0530] "GET /PlantPathology/tiles/ajax.jsp?methodId=getImage&filename=testingFile.jpg HTTP/1.1" 200 12933
0:0:0:0:0:0:0:1 - - [01/Jul/2020:14:17:23 +0530] "POST /PlantPathology/tiles/ajax.jsp?methodId=uploadImage2 HTTP/1.1" 200 4967
0:0:0:0:0:0:0:1 - - [01/Jul/2020:14:17:23 +0530] "GET /PlantPathology/tiles/ajax.jsp?methodId=getImage&filename=testingFile.jpg HTTP/1.1" 200 10091
